numéro de culture,1,1,1,1,1,1,1,1,1
numéro d’échantillon,1,2,3,4 (Troué 1),5 (Troué 2),6,7,8,9
date de mise en pousse,,,,,,,,,
infusion,,,,,,,,,
sucre,,,,,,,,,
cellulose,,,,,,,,,
pourcentage de starter,,,,,,,,,
date de fin de pousse,,,,,,,,,
régularité de l’épaisseur en sortie de bassin,,,,,,,granuleux,,
quantification de l’épaisseur en sortie de bassin,,,,,,épais,fin,,
division en plusieurs couches en sortie de bassin,,,,,,,,,
contamination pendant la pousse,,,,,,,,,"contaminé, tâches noires incrustées"
lavage,Soude 5 min,Soude 1h,,à l’eau,à l’eau,à l’eau,à l’eau,à l’eau,à l’eau
date de trempage,,,,,,,,,
trempage,eau,eau,eau,Colorant alimentaire rouge (pot entier) ,bleu foncé (pot entier) dans 5L d’eau,"bleu clair (pot entier) dans 5L d’eau, trempage avec le 7",Colorant alimentaire bleu clair  (pot enrier dans 5L d’eau) trempage avec le 6,eau,eau
temps de trempage,1h,1h,2 jours,1 nuit  ,1 nuit,1 nuit,1 nuit,1 nuit,1 nuit
Temps d’égoutage,,Essorage 1 nuit,Essorage 5 h,,,,,,
date de mise en séchage,Le 28/11 ,Le 8 /12,Le 13/12 acab,,,,,,
température moyenne de l’air en séchage,appart froid + terrasse + 5 % + appart marie chauffé,,,,,,,,
température maximale de l’air en séchage,,,,,,,,,
température minimale de l’air en séchage,,,,,,,,,
mode de séchage,plastique alimentaire (couvercle de bassin),plastique alimentaire (couvercle de bassin),plastique alimentaire (couvercle de bassin),plastique alimentaire (couvercle de bassin),plastique alimentaire (couvercle de bassin),plastique alimentaire (couvercle de bassin),plastique alimentaire (couvercle de bassin),tapis chauffant sous plastique alimentaire (couvercle de bassin),plastique alimentaire (couvercle de bassin)
Aspect général avant séchage,,Cristaux de bruliure blancs après la soude,,,,,,,
,,bulles après essorage,,,,,,,
,,cristaux blancs disparus après essorga ,,,,,,,
Aspect général pendant séchage,,bulles disparaissent pendant le séchage ,,,,,,,
décollage ou retournement pendant séchage,,,,,,,,,
collant après séchage,oui,,,,,,,,
opacité après séchage,"plus foncé, orangé au centre",,,,,,,,
tâches après séchage,,,,,,,,,
effet cartoné après séchage,,,,,,,,,
retractation ou lissage après séchage,,,,,,,,,
piquetage après séchage,,,,,,,,,
insectes après séchage,,insecteech2.jpeg,,,"insecte blanc, rond, se déplaçant (photo : lien)",,,,
odeur après séchage,"odeur de vinaigre très faible, légère odeur de caramel",,,,,,,,
manufacture,,,gravure,,,,,,
traitement,,,,,,,,,
